{
    "title": "Keboola Controller",
    "type": "object",
    "required":[
        "#storage_token",
        "name",
        "row_name"
    ],
    "properties": {
      "#storage_token": {
        "type": "string",
        "description": "Your Keboola Project Storage Token",
        "title": "Storage Token",
        "propertyOrder": 1
      },
      "name": {
          "type": "string",
          "description": "Name of your configuration",
          "title": "Name",
          "propertyOrder": 2
      },
      "row_name": {
          "type": "string",
          "description": "Name of your row configuration",
          "title": "Row Name",
          "propertyOrder": 3
      }
    }
  }